…
  pivot_longer(
    cols = lscr_disas_prec:lscr_other3_post,
    names_to = c("temp", "type", "period"),
    names_sep = "_"
  ) %>% 
  dplyr::select(-temp) %>% 
  filter(value == 1) %>% 
  group_by(period, type) %>% 
  summarise(
    n_endorsed = sum(value)
  ) %>% 
  spread(period, n_endorsed)
```

    ## # A tibble: 30 x 4
    ##    type     post  prec  preg
    ##    <chr>   <dbl> <dbl> <dbl>
    ##  1 abort       1    67    NA
    ##  2 acc         2    56     2
    ##  3 adopt      NA     9    NA
    ##  4 care        1    24     5
    ##  5 death1      6    66     5
    ##  6 death2      6   106    10
    ##  7 disas       1    57     1
    ##  8 divorce     1    10     3
    ##  9 domviol    NA    20     1
    ## 10 emoab       4    48     7
    ## # … with 20 more rows
…
